{
  "engineRules": {
    "eslint": {
      "0008": {
        "enabled": false,
        "docs": "https://lolcat.omg/secrets.html"
      }
    }
  },
  "GuardRailsRules": {
    "GR0002": {
      "enabled": false,
      "title": "Whatever the company calls it internally",
      "languages": {
        "javascript": true,
        "ruby": true
      }
    }
  }
}